Get Started • cevomod
…
fake_VAFs <- generate_neutral_snvs(mut_rate = 10, sample_below = 0.05, resolution = 0.001)
fake_VAFs
#> # A tibble: 255,760 × 15
#>    patient_id sample_id sample chrom   pos gene_symbol ref   alt   ref_reads
#>    <chr>      <chr>     <chr>  <chr> <int> <chr>       <chr> <chr>     <dbl>
#>  1 S1         S1        tumor  NA       NA NA          NA    NA           99
#>  2 S1         S1        tumor  NA       NA NA          NA    NA           99
#>  3 S1         S1        tumor  NA       NA NA          NA    NA           99
#>  4 S1         S1        tumor  NA       NA NA          NA    NA           99
#>  5 S1         S1        tumor  NA       NA NA          NA    NA           99
#>  6 S1         S1        tumor  NA       NA NA          NA    NA           99
#>  7 S1         S1        tumor  NA       NA NA          NA    NA           99
#>  8 S1         S1        tumor  NA       NA NA          NA    NA           99
#>  9 S1         S1        tumor  NA       NA NA          NA    NA           99
#> 10 S1         S1        tumor  NA       NA NA          NA    NA           99
#> # ℹ 255,750 more rows
#> # ℹ 6 more variables: alt_reads <dbl>, impact <chr>, VAF <dbl>, DP <dbl>,
#> #   n <dbl>, mut_id <chr>
…
